…
``` r
sim_t_test = function(true_mean) {
  sample = rnorm(30, mean = 0)
  
  test_results = t.test(sample) %>% 
  broom::tidy()
}

expand_grid(
  true_mean = 0:6, 
  iter = 1:5
)
```

    ## # A tibble: 35 × 2
    ##    true_mean  iter
    ##        <int> <int>
    ##  1         0     1
    ##  2         0     2
    ##  3         0     3
    ##  4         0     4
    ##  5         0     5
    ##  6         1     1
    ##  7         1     2
    ##  8         1     3
    ##  9         1     4
    ## 10         1     5
    ## # … with 25 more rows
…
``` r
sim_results_df = 
  expand_grid(
    iter = 1:10,
    mean = c(1,2,3,4,5,6)) %>% 
  mutate(
    estimate_df = 
      map(mean, sim_mean_sd)
  ) %>% unnest(estimate_df) %>% 
  select(p.value, estimate)

sim_results_df
```

    ## # A tibble: 60 × 2
    ##        p.value estimate
    ##          <dbl>    <dbl>
    ##  1 0.0294         1.66 
    ##  2 0.00687        2.55 
    ##  3 0.000124       3.57 
    ##  4 0.00924        2.35 
    ##  5 0.000000508    6.19 
    ##  6 0.000000540    6.33 
    ##  7 0.839         -0.190
    ##  8 0.0184         2.12 
    ##  9 0.000493       3.68 
    ## 10 0.00000216     5.09 
    ## # … with 50 more rows
…
